prova01
…
Questão 02 [Dados com Sazonalidade]

importar os dados do excel com cada aba sendo uma série temporal

library(readxl)

Warning: package 'readxl' was built under R version 4.3.2

dados_sazonalidade_uva <- read_excel("DADOS___EXERCICIO___2___SAZONALIDADE.xlsx", sheet = 'UVA')
dados_sazonalidade_mamao <- read_excel("DADOS___EXERCICIO___2___SAZONALIDADE.xlsx", sheet = 'MAMÃO')
dados_sazonalidade_manga <- read_excel("DADOS___EXERCICIO___2___SAZONALIDADE.xlsx", sheet = 'MANGA')
dados_sazonalidade_uva

# A tibble: 67 × 7
   Produto           Região                Mês   Ano Moeda Unidade    Preço
   <chr>             <chr>               <dbl> <dbl> <chr> <chr>      <dbl>
 1 Niagara - atacado São Paulo (capital)     6  2021 R$    quilograma  5.94
 2 Niagara - atacado São Paulo (capital)     5  2021 R$    quilograma  4.71
 3 Niagara - atacado São Paulo (capital)     4  2021 R$    quilograma  5.86
 4 Niagara - atacado São Paulo (capital)     3  2021 R$    quilograma  7.38
 5 Niagara - atacado São Paulo (capital)     2  2021 R$    quilograma  6.29
 6 Niagara - atacado São Paulo (capital)     1  2021 R$    quilograma  5.77
 7 Niagara - atacado São Paulo (capital)    12  2020 R$    quilograma  5.87
 8 Niagara - atacado São Paulo (capital)    11  2020 R$    quilograma  7.68
 9 Niagara - atacado São Paulo (capital)    10  2020 R$    quilograma  8.65
10 Niagara - atacado São Paulo (capital)     9  2020 R$    quilograma  8.05
# ℹ 57 more rows

dados_sazonalidade_mamao

# A tibble: 66 × 7
   Produto           Região                Mês   Ano Moeda Unidade        Preço
   <chr>             <chr>               <dbl> <dbl> <chr> <chr>          <dbl>
 1 Formosa - atacado São Paulo (capital)     6  2021 R$    Caixa de 13 Kg  18.0
 2 Formosa - atacado São Paulo (capital)     5  2021 R$    Caixa de 13 Kg  17.1
 3 Formosa - atacado São Paulo (capital)     4  2021 R$    Caixa de 13 Kg  22.6
 4 Formosa - atacado São Paulo (capital)     3  2021 R$    Caixa de 13 Kg  34.8
 5 Formosa - atacado São Paulo (capital)     2  2021 R$    Caixa de 13 Kg  16.5
 6 Formosa - atacado São Paulo (capital)     1  2021 R$    Caixa de 13 Kg  14.6
 7 Formosa - atacado São Paulo (capital)    12  2020 R$    Caixa de 13 Kg  22.1
 8 Formosa - atacado São Paulo (capital)    11  2020 R$    Caixa de 13 Kg  27.9
 9 Formosa - atacado São Paulo (capital)    10  2020 R$    Caixa de 13 Kg  27.3
10 Formosa - atacado São Paulo (capital)     9  2020 R$    Caixa de 13 Kg  14.9
# ℹ 56 more rows

dados_sazonalidade_manga

# A tibble: 66 × 7
   Produto         Região                Mês   Ano Moeda Unidade    Preço
   <chr>           <chr>               <dbl> <dbl> <chr> <chr>      <dbl>
 1 Tommy - atacado São Paulo (capital)     6  2021 R$    quilograma  3   
 2 Tommy - atacado São Paulo (capital)     5  2021 R$    quilograma  3.19
 3 Tommy - atacado São Paulo (capital)     4  2021 R$    quilograma  3.5 
 4 Tommy - atacado São Paulo (capital)     3  2021 R$    quilograma  4.69
 5 Tommy - atacado São Paulo (capital)     2  2021 R$    quilograma  4.41
 6 Tommy - atacado São Paulo (capital)     1  2021 R$    quilograma  3.55
 7 Tommy - atacado São Paulo (capital)    12  2020 R$    quilograma  2.9 
 8 Tommy - atacado São Paulo (capital)    11  2020 R$    quilograma  2.98
 9 Tommy - atacado São Paulo (capital)    10  2020 R$    quilograma  3.39
10 Tommy - atacado São Paulo (capital)     9  2020 R$    quilograma  4.1 
# ℹ 56 more rows
…
